^C:\USERS\USER\DOWNLOADS\CUSTOMER.CPP|C:\USERS\USER\DOWNLOADS\ITEM.CPP|C:\USERS\USER\DOWNLOADS\MAIN.CPP
C:\USERS\USER\DESKTOP\MAGSHISHOP-MASTER\MAGSHISHOPP\DEBUG\VC141.PDB
C:\USERS\USER\DESKTOP\MAGSHISHOP-MASTER\MAGSHISHOPP\DEBUG\VC141.IDB
C:\USERS\USER\DESKTOP\MAGSHISHOP-MASTER\MAGSHISHOPP\DEBUG\ITEM.OBJ
C:\USERS\USER\DESKTOP\MAGSHISHOP-MASTER\MAGSHISHOPP\DEBUG\CUSTOMER.OBJ
^C:\USERS\USER\DOWNLOADS\ITEM.CPP
C:\USERS\USER\DESKTOP\MAGSHISHOP-MASTER\MAGSHISHOPP\DEBUG\ITEM.OBJ
^C:\USERS\USER\DOWNLOADS\CUSTOMER.CPP|C:\USERS\USER\DOWNLOADS\MAIN.CPP
C:\USERS\USER\DESKTOP\MAGSHISHOP-MASTER\MAGSHISHOPP\DEBUG\VC141.PDB
C:\USERS\USER\DESKTOP\MAGSHISHOP-MASTER\MAGSHISHOPP\DEBUG\VC141.IDB
C:\USERS\USER\DESKTOP\MAGSHISHOP-MASTER\MAGSHISHOPP\DEBUG\MAIN.OBJ
C:\USERS\USER\DESKTOP\MAGSHISHOP-MASTER\MAGSHISHOPP\DEBUG\CUSTOMER.OBJ
^C:\USERS\USER\DOWNLOADS\CUSTOMER.CPP
C:\USERS\USER\DESKTOP\MAGSHISHOP-MASTER\MAGSHISHOPP\DEBUG\VC141.PDB
^C:\USERS\USER\DOWNLOADS\MAIN.CPP
C:\USERS\USER\DESKTOP\MAGSHISHOP-MASTER\MAGSHISHOPP\DEBUG\VC141.PDB
